{
  "rules": {
    ".read": true,
    ".write": true,
    "boards": {
      "$boardId": {
          ".validate": "newData.hasChildren(['name'])",
          "name": {".validate": "newData.isString()"},
          "$other": {".validate": false}
      }
    },
    "cards": {
      "$listId": {
        "$cardId": {
          ".validate": "newData.hasChildren(['name'])",
          "name": {".validate": "newData.isString()"},
          "$other": {".validate": false}
        }
      }
    },
    "lists": {
      "$boardId": {
        ".validate":
          "root.child('boards').child($boardId).exists()",
        "$listId": {
          ".validate": "newData.hasChildren(['name'])",
          "name": {".validate": "newData.isString()"},
          "$other": {".validate": false}
        }
      }
    },
    "labels": {
      "$labelId": {
        ".validate": "newData.hasChildren(['name'])",
        "name": {".validate": "newData.isString()"},
        "$other": {".validate": false}
      }
    }
  }
}